<?xml version="1.0" encoding="UTF-8"?>
<svg width="40px" height="35px" viewBox="0 0 40 35" version="1.1" xmlns="http://www.w3.org/2000/svg" xmlns:xlink="http://www.w3.org/1999/xlink">
    <!-- Generator: sketchtool 49.1 (51147) - http://www.bohemiancoding.com/sketch -->
    <title>91EC8978-A3D3-4507-956E-E7B5B68E0207</title>
    <desc>Created with sketchtool.</desc>
    <defs></defs>
    <g id="Design" stroke="none" stroke-width="1" fill="none" fill-rule="evenodd">
        <g id="Index-catalog" transform="translate(-79.000000, -666.000000)" fill-rule="nonzero" stroke="#000000" stroke-width="1.6">
            <g id="Group-11" transform="translate(60.000000, 194.000000)">
                <g id="icon_catalog/razrushenie" transform="translate(20.000000, 473.000000)">
                    <g id="Group">
                        <path d="M36.4714286,1.83857143 L30.4714286,1.83857143 C29.8714286,1.83857143 29.3571429,2.26614618 29.3571429,2.82199336 L26.5285714,2.82199336 L26.5285714,0.983421927 C26.5285714,0.513089701 26.1428571,0.128272425 25.6714286,0.128272425 L12.0428571,0.128272425 C11.5714286,0.128272425 11.1857143,0.513089701 11.1857143,0.983421927 L11.1857143,2.86475083 L8.35714286,2.86475083 C8.35714286,2.30890365 7.84285714,1.8813289 7.24285714,1.8813289 L1.24285714,1.8813289 C0.642857143,1.8813289 0.128571429,2.35166113 0.128571429,2.86475083 L0.128571429,4.95986711 C0.128571429,5.51571429 0.642857143,5.94328904 1.24285714,5.94328904 L7.24285714,5.94328904 C7.84285714,5.94328904 8.35714286,5.51571429 8.35714286,4.95986711 L11.1857143,4.95986711 L11.1857143,5.77225914 C11.1857143,6.24259136 11.3571429,6.96946844 11.5714286,7.39704319 L14.7428571,13.4258472 L14.7428571,20.7801329 C14.7428571,21.2504651 15.1285714,21.6352824 15.6,21.6352824 L17.1,21.6352824 L17.1,27.450299 C17.1,27.9206312 17.2285714,28.6475083 17.4,29.1178405 L18.5571429,31.9825914 C18.7285714,32.4101661 19.0285714,32.4101661 19.2,31.9825914 L20.3142857,29.160598 C20.4857143,28.7330233 20.6142857,27.9633887 20.6142857,27.4930565 L20.6142857,21.6780399 L22.1142857,21.6780399 C22.5857143,21.6780399 22.9714286,21.2932226 22.9714286,20.8228904 L22.9714286,13.4258472 L26.1428571,7.39704319 C26.3571429,6.96946844 26.5285714,6.24259136 26.5285714,5.77225914 L26.5285714,4.95986711 L29.3571429,4.95986711 C29.3571429,5.51571429 29.8714286,5.94328904 30.4714286,5.94328904 L36.4714286,5.94328904 C37.0714286,5.94328904 37.5857143,5.47295681 37.5857143,4.95986711 L37.5857143,2.86475083 C37.5857143,2.30890365 37.0714286,1.83857143 36.4714286,1.83857143 Z M22.9714286,4.70332226 C22.9714286,5.30192691 22.4571429,5.81501661 21.8571429,5.81501661 L15.8571429,5.81501661 C15.2571429,5.81501661 14.7428571,5.30192691 14.7428571,4.70332226 L14.7428571,3.84817276 C14.7428571,3.24956811 15.2571429,2.73647841 15.8571429,2.73647841 L21.8571429,2.73647841 C22.4571429,2.73647841 22.9714286,3.24956811 22.9714286,3.84817276 L22.9714286,4.70332226 Z" id="Shape"></path>
                    </g>
                </g>
            </g>
        </g>
    </g>
</svg>