<?xml version="1.0" encoding="UTF-8"?>
<svg width="44px" height="36px" viewBox="0 0 44 36" version="1.1" xmlns="http://www.w3.org/2000/svg" xmlns:xlink="http://www.w3.org/1999/xlink">
    <!-- Generator: sketchtool 49.2 (51160) - http://www.bohemiancoding.com/sketch -->
    <title>BEDD4036-6E3B-489B-9E28-F5A53C02B522</title>
    <desc>Created with sketchtool.</desc>
    <defs></defs>
    <g id="Design" stroke="none" stroke-width="1" fill="none" fill-rule="evenodd">
        <g id="-catalog_1" transform="translate(-80.000000, -786.000000)" fill="#000000" fill-rule="nonzero" stroke="#FFFFFF" stroke-width="0.2">
            <g id="noun_492600_cc" transform="translate(81.000000, 787.000000)">
                <path d="M21.2467627,16.0866897 C19.2941699,16.0866897 17.7053174,17.6896305 17.7053174,19.6602069 C17.7053174,21.6293596 19.2940869,23.2322167 21.2467627,23.2322167 C23.2006836,23.2322167 24.788208,21.6292759 24.788208,19.6602069 C24.788208,17.6895468 23.2006836,16.0866897 21.2467627,16.0866897 Z M21.2467627,21.4461281 C20.2707568,21.4461281 19.4763721,20.6440296 19.4763721,19.6602069 C19.4763721,18.6748768 20.2707568,17.8727783 21.2467627,17.8727783 C22.2234326,17.8727783 23.0178174,18.6748768 23.0178174,19.6602069 C23.0178174,20.6440296 22.2234326,21.4461281 21.2467627,21.4461281 Z" id="Shape"></path>
                <path d="M20.6209668,19.0281921 C20.2753223,19.3775714 20.2753223,19.9426749 20.6209668,20.2907143 C20.9666113,20.6400936 21.5275781,20.6400936 21.8732227,20.2907143 C22.2188672,19.9426749 22.2188672,19.3775714 21.8732227,19.0281921 C21.5275781,18.6788128 20.9666113,18.6788128 20.6209668,19.0281921 Z" id="Shape"></path>
                <path d="M41.6153027,24.1285271 L40.7281152,24.1285271 C40.7281152,23.6351921 40.3325,23.2361527 39.843584,23.2361527 C39.354668,23.2361527 38.9590527,23.6352759 38.9590527,24.1285271 L37.19771,24.1285271 C37.1899072,23.0477291 37.113374,21.1268128 36.7463135,18.8855764 C36.4181836,16.8783202 35.92271,15.0294236 35.2742529,13.3925665 C34.4507324,11.3120345 33.3768604,9.56388177 32.0811084,8.19659606 C31.8826367,7.98589655 31.6777734,7.78574877 31.4689258,7.59338916 L32.1731641,6.88416256 C32.863125,6.18808374 32.863125,5.05486207 32.1731641,4.35744335 L28.4158154,0.568034483 C28.0812109,0.230463054 27.6362891,0.044635468 27.1642236,0.044635468 C26.6908301,0.044635468 26.2459912,0.230463054 25.9113037,0.568034483 L22.7544336,3.75415271 C19.0430713,2.65501478 14.3408447,1.54540887 10.4732617,1.54540887 C7.73666016,1.54540887 5.69773926,2.11721182 4.41435547,3.24515764 C2.62454102,4.8192069 1.42740234,6.84999507 0.856723633,9.28250246 C0.409228516,11.1890148 0.346972656,13.3388867 0.672529297,15.6745025 C1.21921875,19.5960591 2.66015137,22.6722217 2.72174316,22.8016897 L2.9027002,23.185069 L5.13677246,23.732 C5.15171387,23.8733596 5.16657227,24.0055074 5.18084961,24.1284433 L0.885195313,24.1284433 C0.396196289,24.1284433 2.13162821e-14,24.5288227 2.13162821e-14,25.0221576 C2.13162821e-14,25.5154926 0.396196289,25.9158719 0.885195313,25.9158719 L5.45253418,25.9158719 L9.21901367,25.9158719 L10.603584,26.2901232 C10.7644531,26.5518227 10.9349512,26.8069901 11.1145801,27.0582217 L10.6826904,27.0582217 C10.1936914,27.0582217 9.79749512,27.4573448 9.79749512,27.9505961 C9.79749512,28.4438473 10.1936914,28.8443103 10.6826904,28.8443103 L12.6723047,28.8443103 C12.8941016,29.056266 13.1230371,29.2590936 13.3577002,29.4514532 L12.9400879,29.5652611 C12.4679395,29.6922167 12.187207,30.1828719 12.314292,30.6591232 C12.4199609,31.0582463 12.7779736,31.321202 13.1683594,31.321202 C13.2442285,31.321202 13.3213428,31.310734 13.39854,31.289798 L15.310957,30.772931 C15.5794043,30.9208227 15.8530811,31.0569064 16.1313232,31.1825222 L15.7635986,31.3970739 C15.3400928,31.6443695 15.1948291,32.1900443 15.4393701,32.6178916 C15.6034766,32.9044631 15.9010596,33.0640788 16.2071924,33.0640788 C16.3570215,33.0640788 16.5094238,33.0261429 16.6487939,32.9449951 L18.3647314,31.9452611 C18.6617334,32.0159409 18.9613086,32.0748128 19.2641211,32.1232167 L18.9606445,32.4293842 C18.615,32.7787635 18.615,33.3440345 18.9606445,33.6934138 C19.1337988,33.8674335 19.3600781,33.9551133 19.5871045,33.9551133 C19.8134668,33.9551133 20.0404102,33.8674335 20.2129004,33.6934138 L21.6175586,32.2763005 C21.9236914,32.2671724 22.227832,32.2474926 22.5293164,32.2174286 L22.3139941,32.592936 C22.0695361,33.0195271 22.2147998,33.5664581 22.6375586,33.8124138 C22.7776758,33.8935616 22.9306592,33.9328374 23.0811523,33.9328374 C23.385957,33.9328374 23.6842871,33.7718818 23.8476465,33.4853103 L24.8372656,31.7580936 C25.1303662,31.6704138 25.4183203,31.5710099 25.7037012,31.4610542 L25.5947949,31.8732414 C25.46771,32.3508325 25.7491064,32.8402315 26.2212549,32.9684433 C26.2977881,32.9880394 26.3755664,32.9985074 26.4508545,32.9985074 C26.8425684,32.9985074 27.200498,32.735468 27.3055859,32.3364286 L27.8179102,30.4077241 C28.0773096,30.2454286 28.3315625,30.0727488 28.5805859,29.8908571 L28.5805859,30.3226404 C28.5805859,30.8159754 28.9762012,31.2163547 29.4650342,31.2163547 C29.9540332,31.2163547 30.3508936,30.8159754 30.3508936,30.3226404 L30.3508936,28.3206601 C30.5609863,28.0955567 30.7620312,27.8652611 30.9540283,27.6271773 L31.0655908,28.0458966 C31.1719238,28.4450197 31.5286084,28.7079754 31.9189941,28.7079754 C31.9955273,28.7079754 32.0720605,28.6988473 32.1498389,28.6779113 C32.6219873,28.5496995 32.9020557,28.0603005 32.7749707,27.5840493 L32.3327051,25.9157044 L37.1484033,25.9157044 L41.6152197,25.9157044 C42.1028906,25.9157044 42.499751,25.5153251 42.499751,25.0219901 C42.499751,24.5286552 42.1029736,24.1285271 41.6153027,24.1285271 Z M27.1643066,1.83072414 L30.9203271,5.62138916 L30.1810596,6.36721182 L30.1992383,6.3436798 L29.1292676,5.92102463 C28.1487793,5.3924335 27.0891016,5.00897044 25.9528906,4.7695468 C25.553457,4.63480296 25.1253857,4.49218719 24.671416,4.34689163 L27.1643066,1.83072414 Z M5.57787598,4.59293103 C6.52989258,3.75549261 8.17635254,3.33158128 10.4733447,3.33158128 C12.9363525,3.33158128 15.8136523,3.82617241 18.5341504,4.47778325 L12.2009863,4.47778325 L12.0239307,4.56018719 C11.2074658,4.9422266 10.4571582,5.42249754 9.77558105,6.00083251 C7.44364258,5.67632512 5.49030273,5.83468473 3.94303711,6.47189163 C4.39891602,5.77840887 4.94361328,5.15033005 5.57787598,4.59293103 Z M5.19786621,15.7883103 C4.15512207,16.5878128 3.44822754,17.3990394 2.96894043,18.125266 C2.81720215,17.5390591 2.67451172,16.9083842 2.55655762,16.2449655 C2.61491211,15.7935025 3.02795898,13.7588621 5.79643555,12.7683399 C5.53960938,13.711798 5.33989258,14.7193202 5.19786621,15.7883103 Z M6.89819824,9.79149754 C6.75102539,10.0924729 6.61348145,10.4038325 6.48249512,10.7244877 C5.10182617,11.0227833 3.44814453,11.6574778 2.24004883,13.0025714 C2.22900879,11.9662414 2.31525391,10.9875271 2.49753906,10.0754729 C2.53713379,9.96166502 2.79578613,9.28777833 3.61424316,8.68323153 C4.86392578,7.7581133 6.61422852,7.56315764 8.21785645,7.64430542 C7.72371094,8.28812808 7.2834375,9.00380296 6.89819824,9.79149754 Z M4.15312988,21.6528916 C4.05260742,21.4147241 3.91381836,21.0718768 3.75626953,20.6440296 C3.82433594,20.2999261 4.07535156,19.4417192 4.97025879,18.4158571 C4.9151416,19.6785468 4.93655762,20.8533892 4.98968262,21.8570591 L4.15312988,21.6528916 Z M28.8737695,27.2924532 C28.8504443,27.3120493 28.8296924,27.3343251 28.8089404,27.356601 C28.1682031,27.9977438 27.4613916,28.5473547 26.7039453,28.998734 C26.6430176,29.026202 26.583335,29.0615419 26.5288818,29.1020739 C25.7714355,29.535197 24.9673389,29.8715123 24.1281299,30.1044039 C24.0619727,30.1148719 23.9971436,30.1318719 23.9335596,30.1567438 C23.077583,30.3779113 22.1884863,30.4930591 21.281875,30.4956552 C21.2592139,30.4943153 21.2371338,30.4943153 21.2150537,30.4956552 C20.3052051,30.4917192 19.4135352,30.3752315 18.5549854,30.1528079 C18.4966309,30.1292759 18.4362842,30.113532 18.3746924,30.1044039 C17.5296729,29.8689163 16.7184375,29.528665 15.9564258,29.0916059 C15.9084473,29.056266 15.8572314,29.026202 15.8040234,29.00133 C15.0316357,28.5407389 14.311792,27.9794039 13.6607617,27.3238571 C13.2249707,26.884202 12.8326758,26.411803 12.4837939,25.9159557 L15.9395752,25.9159557 L26.5547803,25.9159557 L30.0202734,25.9159557 C29.6791113,26.4000788 29.2965283,26.8620099 28.8737695,27.2924532 Z M13.2780957,19.6602069 C13.2780957,15.2269754 16.8532422,11.620798 21.2467627,11.620798 C25.6416113,11.620798 29.2161768,15.2269754 29.2161768,19.6602069 C29.2161768,21.2695123 28.7518311,22.8057094 27.8712012,24.1285271 L14.6224072,24.1285271 C13.7416943,22.8056256 13.2780957,21.2694286 13.2780957,19.6602069 Z M29.9242334,24.1285271 C30.6219971,22.7546256 30.9864844,21.2367685 30.9864844,19.6602069 C30.9864844,14.2417291 26.6169531,9.8334532 21.2467627,9.8334532 C15.8765723,9.8334532 11.5077051,14.2418128 11.5077051,19.6602069 C11.5077051,21.2367685 11.8715283,22.7546256 12.5699561,24.1285271 L6.96692871,24.1285271 C6.80547852,22.8160936 6.54217773,19.924335 6.86125977,16.8011084 C7.1102832,14.3634089 7.6595459,12.2658768 8.49410645,10.5661281 C9.47135742,8.57461576 10.8507813,7.12877833 12.5958545,6.26378818 L23.0217188,6.26378818 C26.1916211,6.26378818 28.8076123,7.32758621 30.7971436,9.42637438 C32.2290283,10.9363596 34.1200293,13.847798 34.9928564,19.1367241 C35.3430664,21.2563645 35.4156982,23.1039212 35.4260742,24.1285271 L29.9242334,24.1284433 L29.9242334,24.1285271 Z" id="Shape"></path>
            </g>
        </g>
    </g>
</svg>