<?xml version="1.0" encoding="UTF-8"?>
<svg width="36px" height="36px" viewBox="0 0 36 36" version="1.1" xmlns="http://www.w3.org/2000/svg" xmlns:xlink="http://www.w3.org/1999/xlink">
    <!-- Generator: sketchtool 49.1 (51147) - http://www.bohemiancoding.com/sketch -->
    <title>3D2036F6-481C-47E2-BD1F-FE8063C0D221</title>
    <desc>Created with sketchtool.</desc>
    <defs></defs>
    <g id="Design" stroke="none" stroke-width="1" fill="none" fill-rule="evenodd">
        <g id="payment/delivery" transform="translate(-772.000000, -520.000000)" fill="#FFFFFF" fill-rule="nonzero">
            <g id="icon/paydel_office" transform="translate(772.000000, 520.000000)">
                <path d="M35.3723571,32.3747143 L33.5737857,32.3747143 L33.5737857,0.5995 C33.5737857,0.239785714 33.334,0 32.9742857,0 L2.99764286,0 C2.63792857,0 2.39814286,0.239785714 2.39814286,0.5995 L2.39814286,32.3746429 L0.5995,32.3746429 C0.239785714,32.3746429 0,32.6144286 0,32.9741429 L0,35.3722857 C0,35.732 0.239785714,35.9717857 0.5995,35.9717857 L35.3723571,35.9717857 C35.7320714,35.9717857 35.9718571,35.732 35.9718571,35.3722857 L35.9718571,32.9741429 C35.9719286,32.6145 35.7320714,32.3747143 35.3723571,32.3747143 Z M3.59721429,1.19907143 L32.3747143,1.19907143 L32.3747143,32.3747143 L23.3817143,32.3747143 L23.3817143,25.7798571 C23.3817143,25.4201429 23.1419286,25.1803571 22.7822143,25.1803571 L17.9859286,25.1803571 L13.1896429,25.1803571 C12.8299286,25.1803571 12.5901429,25.4201429 12.5901429,25.7798571 L12.5901429,32.3747143 L3.59721429,32.3747143 L3.59721429,1.19907143 Z M13.7892143,32.3747143 L13.7892143,26.3794286 L17.3864286,26.3794286 L17.3864286,32.3747143 L13.7892143,32.3747143 Z M18.5855,26.3793571 L22.1827143,26.3793571 L22.1827143,32.3746429 L18.5855,32.3746429 L18.5855,26.3793571 Z M34.7729286,34.7728571 L1.19907143,34.7728571 L1.19907143,33.5737857 L2.99764286,33.5737857 L13.1897143,33.5737857 L17.986,33.5737857 L22.7822857,33.5737857 L32.9743571,33.5737857 L34.7729286,33.5737857 L34.7729286,34.7728571 Z" id="Shape"></path>
                <path d="M11.3910714,2.99764286 L6.59485714,2.99764286 C6.23514286,2.99764286 5.99535714,3.23742857 5.99535714,3.59714286 L5.99535714,7.19435714 C5.99535714,7.55407143 6.23514286,7.79385714 6.59485714,7.79385714 L11.3911429,7.79385714 C11.7508571,7.79385714 11.9906429,7.55407143 11.9906429,7.19435714 L11.9906429,3.59721429 C11.9906429,3.2375 11.7507857,2.99764286 11.3910714,2.99764286 Z M10.7915714,6.59485714 L7.19435714,6.59485714 L7.19435714,4.19671429 L10.7915714,4.19671429 L10.7915714,6.59485714 Z" id="Shape"></path>
                <path d="M11.3910714,9.5925 L6.59485714,9.5925 C6.23514286,9.5925 5.99535714,9.83228571 5.99535714,10.192 L5.99535714,13.7892143 C5.99535714,14.1489286 6.23514286,14.3887143 6.59485714,14.3887143 L11.3911429,14.3887143 C11.7508571,14.3887143 11.9906429,14.1489286 11.9906429,13.7892143 L11.9906429,10.192 C11.9906429,9.83228571 11.7507857,9.5925 11.3910714,9.5925 Z M10.7915714,13.1897143 L7.19435714,13.1897143 L7.19435714,10.7915714 L10.7915714,10.7915714 L10.7915714,13.1897143 Z" id="Shape"></path>
                <path d="M15.5877857,14.3887857 L20.3840714,14.3887857 C20.7437857,14.3887857 20.9835714,14.149 20.9835714,13.7892857 L20.9835714,10.1920714 C20.9835714,9.83235714 20.7437857,9.59257143 20.3840714,9.59257143 L15.5877857,9.59257143 C15.2280714,9.59257143 14.9882857,9.83235714 14.9882857,10.1920714 L14.9882857,13.7892857 C14.9882857,14.1489286 15.2280714,14.3887857 15.5877857,14.3887857 Z M16.1873571,10.7915714 L19.7845714,10.7915714 L19.7845714,13.1897143 L16.1873571,13.1897143 L16.1873571,10.7915714 Z" id="Shape"></path>
                <path d="M24.5807857,14.3887857 L29.3770714,14.3887857 C29.7367857,14.3887857 29.9765714,14.149 29.9765714,13.7892857 L29.9765714,10.1920714 C29.9765714,9.83235714 29.7367857,9.59257143 29.3770714,9.59257143 L24.5807857,9.59257143 C24.2210714,9.59257143 23.9812857,9.83235714 23.9812857,10.1920714 L23.9812857,13.7892857 C23.9812857,14.1489286 24.2210714,14.3887857 24.5807857,14.3887857 Z M25.1803571,10.7915714 L28.7775714,10.7915714 L28.7775714,13.1897143 L25.1803571,13.1897143 L25.1803571,10.7915714 Z" id="Shape"></path>
                <path d="M15.5877857,20.9836429 L20.3840714,20.9836429 C20.7437857,20.9836429 20.9835714,20.7438571 20.9835714,20.3841429 L20.9835714,16.7869286 C20.9835714,16.4272143 20.7437857,16.1874286 20.3840714,16.1874286 L15.5877857,16.1874286 C15.2280714,16.1874286 14.9882857,16.4272143 14.9882857,16.7869286 L14.9882857,20.3841429 C14.9882857,20.7437857 15.2280714,20.9836429 15.5877857,20.9836429 Z M16.1873571,17.3864286 L19.7845714,17.3864286 L19.7845714,19.7845714 L16.1873571,19.7845714 L16.1873571,17.3864286 Z" id="Shape"></path>
                <path d="M24.5807857,20.9836429 L29.3770714,20.9836429 C29.7367857,20.9836429 29.9765714,20.7438571 29.9765714,20.3841429 L29.9765714,16.7869286 C29.9765714,16.4272143 29.7367857,16.1874286 29.3770714,16.1874286 L24.5807857,16.1874286 C24.2210714,16.1874286 23.9812857,16.4272143 23.9812857,16.7869286 L23.9812857,20.3841429 C23.9812857,20.7437857 24.2210714,20.9836429 24.5807857,20.9836429 Z M25.1803571,17.3864286 L28.7775714,17.3864286 L28.7775714,19.7845714 L25.1803571,19.7845714 L25.1803571,17.3864286 Z" id="Shape"></path>
                <path d="M11.3910714,16.1873571 L6.59485714,16.1873571 C6.23514286,16.1873571 5.99535714,16.4271429 5.99535714,16.7868571 L5.99535714,20.3840714 C5.99535714,20.7437857 6.23514286,20.9835714 6.59485714,20.9835714 L11.3911429,20.9835714 C11.7508571,20.9835714 11.9906429,20.7437857 11.9906429,20.3840714 L11.9906429,16.7868571 C11.9906429,16.4271429 11.7507857,16.1873571 11.3910714,16.1873571 Z M10.7915714,19.7845714 L7.19435714,19.7845714 L7.19435714,17.3864286 L10.7915714,17.3864286 L10.7915714,19.7845714 Z" id="Shape"></path>
                <path d="M15.5877857,7.79392857 L20.3840714,7.79392857 C20.7437857,7.79392857 20.9835714,7.55414286 20.9835714,7.19442857 L20.9835714,3.59721429 C20.9835714,3.2375 20.7437857,2.99771429 20.3840714,2.99771429 L15.5877857,2.99771429 C15.2280714,2.99771429 14.9882857,3.2375 14.9882857,3.59721429 L14.9882857,7.19442857 C14.9882857,7.55407143 15.2280714,7.79392857 15.5877857,7.79392857 Z M16.1873571,4.19671429 L19.7845714,4.19671429 L19.7845714,6.59485714 L16.1873571,6.59485714 L16.1873571,4.19671429 Z" id="Shape"></path>
                <path d="M24.5807857,7.79392857 L29.3770714,7.79392857 C29.7367857,7.79392857 29.9765714,7.55414286 29.9765714,7.19442857 L29.9765714,3.59721429 C29.9765714,3.2375 29.7367857,2.99771429 29.3770714,2.99771429 L24.5807857,2.99771429 C24.2210714,2.99771429 23.9812857,3.2375 23.9812857,3.59721429 L23.9812857,7.19442857 C23.9812857,7.55407143 24.2210714,7.79392857 24.5807857,7.79392857 Z M25.1803571,4.19671429 L28.7775714,4.19671429 L28.7775714,6.59485714 L25.1803571,6.59485714 L25.1803571,4.19671429 Z" id="Shape"></path>
                <path d="M14.3887857,23.9812857 L21.5831429,23.9812857 C21.9428571,23.9812857 22.1826429,23.7415 22.1826429,23.3817857 C22.1826429,23.0220714 21.9428571,22.7822857 21.5831429,22.7822857 L14.3887857,22.7822857 C14.0290714,22.7822857 13.7892857,23.0220714 13.7892857,23.3817857 C13.7892143,23.7414286 14.0290714,23.9812857 14.3887857,23.9812857 Z" id="Shape"></path>
            </g>
        </g>
    </g>
</svg>