<?xml version="1.0" encoding="UTF-8"?>
<svg width="47px" height="45px" viewBox="0 0 47 45" version="1.1" xmlns="http://www.w3.org/2000/svg" xmlns:xlink="http://www.w3.org/1999/xlink">
    <!-- Generator: sketchtool 49.2 (51160) - http://www.bohemiancoding.com/sketch -->
    <title>BD9A4F90-59E4-483A-B771-BF3CB05F3F5C</title>
    <desc>Created with sketchtool.</desc>
    <defs>
        <polygon id="path-1" points="0.0351573529 0.11615 38.9475507 0.11615 38.9475507 2 0.0351573529 2"></polygon>
    </defs>
    <g id="Design" stroke="none" stroke-width="1" fill="none" fill-rule="evenodd">
        <g id="Index-catalog" transform="translate(-1021.000000, -516.000000)">
            <g id="Group-9" transform="translate(60.000000, 270.000000)">
                <g id="Page-1" transform="translate(962.000000, 247.000000)">
                    <path d="M44.5236573,0.00811649833 C44.2129681,-0.0450949391 43.9179846,0.168917089 43.8657271,0.486290511 L41.7497276,13.3248254 C41.5796766,14.3563984 41.151051,15.3330105 40.5102544,16.1491136 L35.1984102,22.9135264 L30.5824757,22.9135264 L30.5824757,16.5113887 L35.589913,16.5113887 C36.6000814,16.5113887 37.4219231,15.6722516 37.4219231,14.6408244 L37.4219231,12.7855676 L37.4621871,12.7855676 C37.7774453,12.7855676 38.033307,12.5244671 38.033307,12.2024285 C38.033307,11.8805358 37.7774453,11.6192895 37.4621871,11.6192895 L37.4219231,11.6192895 L37.4219231,9.76417843 C37.4219231,8.73275125 36.6000814,7.89361417 35.589913,7.89361417 L29.1892285,7.89361417 L29.1892285,7.05855907 C29.1892285,6.14492597 28.4611933,5.40156948 27.5663911,5.40156948 L24.7059366,5.40156948 C23.8111344,5.40156948 23.0830992,6.14492597 23.0830992,7.05855907 L23.0830992,7.89361417 L21.9875483,7.89361417 C20.9773798,7.89361417 20.1555382,8.73275125 20.1555382,9.76417843 L20.1555382,11.6192895 L20.1535392,11.6192895 C19.8381382,11.6192895 19.5824193,11.8805358 19.5824193,12.2024285 C19.5824193,12.5244671 19.8381382,12.7855676 20.1535392,12.7855676 L20.1555382,12.7855676 L20.1555382,14.6408244 C20.1555382,15.6203522 20.8969947,16.4247925 21.8366298,16.5035163 L21.8366298,22.9135264 L21.605469,22.9135264 C21.290068,22.9135264 21.034349,23.1746269 21.034349,23.4966655 L21.034349,24.1745646 L18.2157291,23.5733483 C17.7299916,20.7063452 15.2780307,18.5181159 12.3334788,18.5181159 C9.04082936,18.5181159 6.36213385,21.2531838 6.36213385,24.6152719 C6.36213385,26.1589868 6.92811375,27.5696001 7.85803987,28.6452001 C7.4067123,29.8827669 6.82931,31.4377071 6.57130654,32.0774107 L5.50673889,32.0774107 C5.19133788,32.0774107 4.93561891,32.3385112 4.93561891,32.6605497 L4.93561891,37.8337219 L3.96714219,37.8337219 C2.40955522,37.8337219 1.14223997,36.5397364 1.14223997,34.9493704 C1.14223997,34.6273319 0.886520996,34.3662314 0.571119985,34.3662314 C0.255718973,34.3662314 0,34.6273319 0,34.9493704 C0,37.1829388 1.77960987,39 3.96714219,39 L5.50673889,39 L37.7040564,39 L38.6322691,39 C40.8198014,39 42.5992685,37.1829388 42.5992685,34.9493704 C42.5992685,34.6273319 42.3435496,34.3662314 42.0281486,34.3662314 C41.7127475,34.3662314 41.4570286,34.6273319 41.4570286,34.9493704 C41.4570286,36.5397364 40.1898561,37.8337219 38.6322691,37.8337219 L38.2751764,37.8337219 L38.2751764,32.6605497 C38.2751764,32.3385112 38.0194574,32.0774107 37.7040564,32.0774107 L36.5429694,32.0774107 L36.5429694,23.4966655 C36.5429694,23.380475 36.508845,23.2728859 36.4514475,23.182062 L41.4013444,16.8786205 C42.1637895,15.907694 42.6737997,14.7457895 42.8761189,13.5184276 L44.9919757,0.679892673 C45.044376,0.362373465 44.8346322,0.0614737205 44.5236573,0.00811649833 Z M24.2253392,7.05855907 C24.2253392,6.78798255 24.440937,6.56784756 24.7059366,6.56784756 L27.5663911,6.56784756 C27.8313908,6.56784756 28.0469885,6.78798255 28.0469885,7.05855907 L28.0469885,7.89361417 L24.2253392,7.89361417 L24.2253392,7.05855907 Z M21.2977781,9.76417843 C21.2977781,9.37580783 21.6071824,9.05989225 21.9875483,9.05989225 L23.6542192,9.05989225 L28.6181085,9.05989225 L35.589913,9.05989225 C35.9702789,9.05989225 36.2796831,9.37580783 36.2796831,9.76417843 L36.2796831,11.6192895 L21.2977781,11.6192895 L21.2977781,9.76417843 Z M21.2977781,14.6408244 L21.2977781,12.7855676 L36.2796831,12.7855676 L36.2796831,14.6408244 C36.2796831,15.029195 35.9702789,15.3451106 35.589913,15.3451106 L30.011213,15.3451106 L22.4077498,15.3451106 L21.9875483,15.3451106 C21.6071824,15.3451106 21.2977781,15.029195 21.2977781,14.6408244 Z M22.9788698,21.6220192 L24.3564112,21.6220192 C24.6718122,21.6220192 24.9275312,21.3609187 24.9275312,21.0388802 C24.9275312,20.7168417 24.6718122,20.4557412 24.3564112,20.4557412 L22.9788698,20.4557412 L22.9788698,19.164234 L24.3564112,19.164234 C24.6718122,19.164234 24.9275312,18.9031335 24.9275312,18.5810949 C24.9275312,18.2590564 24.6718122,17.9979559 24.3564112,17.9979559 L22.9788698,17.9979559 L22.9788698,16.5113887 L29.4402357,16.5113887 L29.4402357,17.9979559 L28.0626943,17.9979559 C27.7472933,17.9979559 27.4915744,18.2590564 27.4915744,18.5810949 C27.4915744,18.9031335 27.7472933,19.164234 28.0626943,19.164234 L29.4402357,19.164234 L29.4402357,20.4557412 L28.0626943,20.4557412 C27.7472933,20.4557412 27.4915744,20.7168417 27.4915744,21.0388802 C27.4915744,21.3609187 27.7472933,21.6220192 28.0626943,21.6220192 L29.4402357,21.6220192 L29.4402357,22.9135264 L22.9788698,22.9135264 L22.9788698,21.6220192 Z M27.1074962,29.4656767 C26.3583295,29.4656767 25.7490873,28.8434673 25.7490873,28.0786805 C25.7490873,27.3138936 26.3583295,26.6915385 27.1074962,26.6915385 C27.85652,26.6915385 28.4659051,27.3138936 28.4659051,28.0786805 C28.4659051,28.8434673 27.85652,29.4656767 27.1074962,29.4656767 Z M24.7436306,28.9044054 L22.176589,28.2477908 L22.176589,25.6093782 L25.3324553,26.2826122 C24.8842689,26.7444584 24.6068473,27.3789136 24.6068473,28.0786805 C24.6068473,28.3679174 24.6565348,28.6452001 24.7436306,28.9044054 Z M21.034349,27.9556381 L17.7743962,27.1218951 C18.0926528,26.4047799 18.2784095,25.6146265 18.3005404,24.7826328 L21.034349,25.3657719 L21.034349,27.9556381 Z M18.1240644,32.0774107 L16.8129157,28.6400976 C16.9422743,28.4903766 17.0642085,28.3340954 17.178718,28.1718369 L21.034349,29.1579251 L21.034349,32.0774107 L18.1240644,32.0774107 Z M8.76440728,29.5002277 C9.76058332,30.2610783 10.996487,30.7119906 12.3334788,30.7119906 C13.6748969,30.7119906 14.9143701,30.2578711 15.9122595,29.4923553 L16.8982981,32.0774107 L7.80192733,32.0774107 C7.92985821,31.7461877 8.09248462,31.3161227 8.28666542,30.794359 C8.45857253,30.3323671 8.62848073,29.8708125 8.76440728,29.5002277 Z M12.3334788,23.5336948 C12.917449,23.5336948 13.3924781,24.0188665 13.3924781,24.6152719 C13.3924781,25.2113858 12.917449,25.6964117 12.3334788,25.6964117 C11.7495087,25.6964117 11.2743368,25.2113858 11.2743368,24.6152719 C11.2743368,24.0188665 11.7495087,23.5336948 12.3334788,23.5336948 Z M14.4386271,23.9589489 L17.160585,24.5394639 C17.1608705,24.5646846 17.1624411,24.5897596 17.1624411,24.6152719 C17.1624411,25.4127146 16.974971,26.1658386 16.6442925,26.8329497 L13.9438944,26.1423673 C14.3092684,25.7410219 14.534718,25.2051171 14.534718,24.6152719 C14.534718,24.386973 14.5008792,24.1666922 14.4386271,23.9589489 Z M12.3334788,19.684394 C14.5544217,19.684394 16.4286947,21.2235895 16.9899629,23.3119562 L12.7852348,22.4149426 C12.7842353,22.414651 12.7830931,22.4147968 12.7820936,22.414651 C12.6371719,22.3838904 12.4872529,22.3674167 12.3334788,22.3674167 C11.1195633,22.3674167 10.1320969,23.3756641 10.1320969,24.6152719 C10.1320969,25.6545715 10.827721,26.5288427 11.7679273,26.7848407 C11.7779219,26.7879022 11.786917,26.7928589 11.7971972,26.795483 L15.963803,27.8611696 C15.0779959,28.8927426 13.7794119,29.5457125 12.3334788,29.5457125 C9.67063192,29.5457125 7.50437382,27.3338661 7.50437382,24.6152719 C7.50437382,21.8965319 9.67063192,19.684394 12.3334788,19.684394 Z M37.1329364,37.8337219 L6.07785888,37.8337219 L6.07785888,33.2436887 L17.7318477,33.2436887 C17.7324188,33.2436887 17.7331327,33.2438345 17.7337039,33.2438345 C17.734275,33.2438345 17.7347033,33.2436887 17.7352744,33.2436887 L21.605469,33.2436887 L35.9718495,33.2436887 L37.1329364,33.2436887 L37.1329364,37.8337219 Z M35.4007295,32.0774107 L22.176589,32.0774107 L22.176589,29.4500777 L26.4983967,30.5554178 C26.5138169,30.559354 26.5292372,30.5615407 26.5446574,30.5643106 C26.7258452,30.6073171 26.9137437,30.6319548 27.1074962,30.6319548 C28.4863226,30.6319548 29.608145,29.4865239 29.608145,28.0786805 C29.608145,26.8535054 28.7583185,25.8279096 27.6292143,25.5821165 C27.6263587,25.5815333 27.6237886,25.5800755 27.6207903,25.5793466 L22.176589,24.4180252 L22.176589,24.0798045 L22.4077498,24.0798045 L30.011213,24.0798045 L34.2823338,24.0798045 L32.4697417,26.3883062 C32.2724198,26.6396391 32.3119698,27.0065794 32.5579797,27.2080539 C32.6633514,27.2943585 32.7895689,27.3361987 32.9149297,27.3361987 C33.0822679,27.3361987 33.2480355,27.2614111 33.3608317,27.1178131 L35.4007295,24.5200745 L35.4007295,32.0774107 Z" id="Fill-1" stroke="#FFDD55" stroke-width="0.5" fill="#FFDD55"></path>
                    <g id="Group-5" transform="translate(3.000000, 42.000000)">
                        <mask id="mask-2" fill="white">
                            <use xlink:href="#path-1"></use>
                        </mask>
                        <g id="Clip-4"></g>
                        <path d="M2.03347721,1.488525 C2.49889632,1.728275 3.02654338,2.000025 4.04169044,2.000025 C5.05655074,2.000025 5.58419779,1.728275 6.04976029,1.488525 C6.45381176,1.280525 6.77312426,1.11615 7.47455074,1.11615 C8.17597721,1.11615 8.49514632,1.2804 8.89905441,1.488525 C9.36461691,1.728275 9.89226397,2.000025 10.9071243,2.000025 C11.9219846,2.000025 12.4496316,1.728275 12.9151941,1.488525 C13.3192456,1.2804 13.6384147,1.11615 14.3398412,1.11615 C15.041411,1.11615 15.3605801,1.2804 15.7646316,1.488525 C16.2301941,1.728275 16.7578412,2.000025 17.7727015,2.000025 C18.7878485,2.000025 19.3154956,1.728275 19.7810581,1.488525 C20.1852529,1.280525 20.5044221,1.11615 21.2058485,1.11615 C21.9077051,1.11615 22.2267309,1.280525 22.6310691,1.488525 C23.0966316,1.728275 23.6242787,2.000025 24.6394257,2.000025 C25.6544294,2.000025 26.1822199,1.728275 26.647639,1.488525 C27.0518338,1.280525 27.3710029,1.11615 28.0727162,1.11615 C28.774286,1.11615 29.0935985,1.280525 29.49765,1.488525 C29.9632125,1.728275 30.4911463,2.000025 31.50615,2.000025 C32.5212971,2.000025 33.0492309,1.728275 33.5147934,1.488525 C33.9189882,1.280525 34.2383007,1.11615 34.940014,1.11615 C35.6418706,1.11615 35.9611831,1.280525 36.3655213,1.48865 C36.8312272,1.728275 37.3588743,2.000025 38.3740213,2.000025 C38.6907529,2.000025 38.9475507,1.77615 38.9475507,1.500025 C38.9475507,1.2239 38.6907529,1.000025 38.3740213,1.000025 C37.6723081,1.000025 37.3529956,0.83565 36.9488007,0.62765 C36.4830949,0.3879 35.9553044,0.11615 34.940014,0.11615 C33.9248669,0.11615 33.3970765,0.3879 32.931514,0.62765 C32.5271757,0.83565 32.2080066,1.000025 31.50615,1.000025 C30.8045801,1.000025 30.4852676,0.83565 30.0810728,0.62765 C29.6155103,0.3879 29.0878632,0.11615 28.0727162,0.11615 C27.0577125,0.11615 26.5299221,0.3879 26.0643596,0.62765 C25.6601647,0.83565 25.3409956,1.000025 24.6394257,1.000025 C23.9378559,1.000025 23.6185434,0.83565 23.2143485,0.62765 C22.748786,0.3879 22.2209956,0.11615 21.2058485,0.11615 C20.1909882,0.11615 19.6633412,0.3879 19.1977787,0.62765 C18.7935838,0.83565 18.4742713,1.000025 17.7727015,1.000025 C17.071275,1.000025 16.7521059,0.835775 16.3480544,0.62765 C15.8824919,0.3879 15.3548449,0.11615 14.3398412,0.11615 C13.3249809,0.11615 12.7973338,0.3879 12.3317713,0.62765 C11.9277199,0.835775 11.6085507,1.000025 10.9071243,1.000025 C10.2056978,1.000025 9.88667206,0.835775 9.48262059,0.62765 C9.01705809,0.3879 8.48955441,0.11615 7.47455074,0.11615 C6.45954706,0.11615 5.9319,0.3879 5.46648088,0.62765 C5.06228603,0.835775 4.74311691,1.000025 4.04169044,1.000025 C3.34012059,1.000025 3.02080809,0.83565 2.61675662,0.62765 C2.15119412,0.3879 1.62354706,0.11615 0.608686765,0.11615 C0.291955147,0.11615 0.0351573529,0.340025 0.0351573529,0.61615 C0.0351573529,0.892275 0.291955147,1.11615 0.608686765,1.11615 C1.31011324,1.11615 1.62928235,1.2804 2.03347721,1.488525" id="Fill-3" stroke="#FFDD55" stroke-width="0.5" fill="#FFDD55" mask="url(#mask-2)"></path>
                    </g>
                </g>
            </g>
        </g>
    </g>
</svg>