<?xml version="1.0" encoding="UTF-8"?>
<svg width="52px" height="44px" viewBox="0 0 52 44" version="1.1" xmlns="http://www.w3.org/2000/svg" xmlns:xlink="http://www.w3.org/1999/xlink">
    <!-- Generator: sketchtool 49.2 (51160) - http://www.bohemiancoding.com/sketch -->
    <title>D9551A85-17EE-473E-AAFB-7E1C407D4CD9</title>
    <desc>Created with sketchtool.</desc>
    <defs></defs>
    <g id="Design" stroke="none" stroke-width="1" fill="none" fill-rule="evenodd">
        <g id="Index-catalog" transform="translate(-585.000000, -521.000000)" fill="#FFDD55" fill-rule="nonzero" stroke="#21252E">
            <g id="Group-9" transform="translate(60.000000, 270.000000)">
                <g id="Group-2" transform="translate(526.000000, 252.000000)">
                    <rect id="Rectangle-path" stroke-width="0.8" x="19" y="19" width="12" height="2"></rect>
                    <rect id="Rectangle-path" stroke-width="0.8" x="19" y="23" width="12" height="2"></rect>
                    <rect id="Rectangle-path" x="19" y="28" width="12" height="2"></rect>
                    <path d="M41.1120117,0 L41.1120117,19.2705441 L38.1819336,19.2705441 L38.1819336,13.3411079 L11.8108398,13.3411079 L11.8108398,15.3175866 L11.3224609,15.3175866 C8.89892578,15.3175866 6.92734375,17.3125426 6.92734375,19.7646884 L6.92734375,23.2235015 L3.70126953,23.2235015 C2.54873047,21.6057987 2.67265625,19.2983094 4.07441406,17.8297095 L1.96669922,15.7702312 C-0.655566406,18.5177174 -0.655566406,22.9881382 1.96669922,25.7356245 C3.50507812,27.3474975 3.50507812,29.9701879 1.96669922,31.582061 L4.07441406,33.6415394 C5.99453125,31.6297858 6.50673828,28.6947598 5.61494141,26.188269 L6.92734375,26.188269 L6.92734375,29.6470821 C6.92734375,32.0992279 8.89902344,34.0940851 11.3224609,34.0940851 L11.8108398,34.0940851 L11.8108398,42 L19.4004883,42 L20.3771484,36.0705638 L29.6154297,36.0705638 L30.5920898,42 L38.1817383,42 L38.1817383,30.1411276 L41.1118164,30.1411276 L41.1118164,41.9999012 L50,42 L50,0 L41.1120117,0 Z M11.8108398,31.1294164 L11.3224609,31.1294164 C10.5145508,31.1294164 9.85742187,30.4644311 9.85742187,29.6470821 L9.85742187,19.7646884 C9.85742187,18.9473394 10.5146484,18.2823541 11.3224609,18.2823541 L11.8108398,18.2823541 L11.8108398,31.1294164 Z M16.9183594,39.0352325 L14.7410156,39.0352325 L14.7410156,36.0705638 L17.4067383,36.0705638 L16.9183594,39.0352325 Z M35.2517578,39.0352325 L33.0744141,39.0352325 L32.5860352,36.0705638 L35.2517578,36.0705638 L35.2517578,39.0352325 Z M35.2517578,33.1058951 L14.7410156,33.1058951 L14.7410156,16.3058754 L35.2517578,16.3058754 L35.2517578,33.1058951 Z M41.1120117,27.176459 L38.1819336,27.176459 L38.1819336,22.2353116 L41.1120117,22.2353116 L41.1120117,27.176459 Z M47.0699219,39.0352325 L44.0421875,39.0352325 L44.0421875,2.96476749 L47.0699219,2.96476749 L47.0699219,39.0352325 Z" id="Shape" stroke-width="0.9"></path>
                </g>
            </g>
        </g>
    </g>
</svg>